…
    ## Registered S3 method overwritten by 'hoardr':
    ##   method           from
    ##   print.cache_info httr

    ## using cached file: /Users/zeze/Library/Caches/org.R-project.R/R/rnoaa/noaa_ghcnd/USW00094728.dly

    ## date created (size, mb): 2023-10-09 17:57:46.959077 (0.343)

    ## file min/max dates: 2021-01-01 / 2023-10-31

``` r
weather_df
```

    ## # A tibble: 365 × 6
    ##    name           id          date        prcp  tmax  tmin
    ##    <chr>          <chr>       <date>     <dbl> <dbl> <dbl>
    ##  1 CentralPark_NY USW00094728 2022-01-01   201  13.3  10  
    ##  2 CentralPark_NY USW00094728 2022-01-02    10  15     2.8
    ##  3 CentralPark_NY USW00094728 2022-01-03     0   2.8  -5.5
    ##  4 CentralPark_NY USW00094728 2022-01-04     0   1.1  -7.1
    ##  5 CentralPark_NY USW00094728 2022-01-05    58   8.3  -0.5
    ##  6 CentralPark_NY USW00094728 2022-01-06     0   5     1.1
    ##  7 CentralPark_NY USW00094728 2022-01-07    97   1.1  -3.8
    ##  8 CentralPark_NY USW00094728 2022-01-08     0  -1    -6.6
    ##  9 CentralPark_NY USW00094728 2022-01-09    25   4.4  -1.6
    ## 10 CentralPark_NY USW00094728 2022-01-10     0   4.4  -4.3
    ## # ℹ 355 more rows
…
